{
  "fields": [
    {
      "fieldName": "name",
      "fieldType": "String",
      "fieldValidateRules": ["required", "unique", "minlength"],
      "fieldValidateRulesMinlength": "3"
    }
  ],
  "relationships": [],
  "service": "serviceClass",
  "dto": "mapstruct",
  "readOnly": false,
  "pagination": "infinite-scroll",
  "name": "EventCategory",
  "changelogDate": "20210423202924"
}
